{
 "align_labels_right": 0, 
 "creation": "2018-12-08 22:49:30.630394", 
 "custom_format": 1, 
 "default_print_language": "ar", 
 "disabled": 0, 
 "doc_type": "Servant", 
 "docstatus": 0, 
 "doctype": "Print Format", 
 "font": "Default", 
 "html": "<h3>{{ doc.full_name_ar }}</h3>", 
 "idx": 0, 
 "line_breaks": 0, 
 "modified": "2018-12-08 23:02:18.216439", 
 "modified_by": "Administrator", 
 "module": "Service Managment", 
 "name": "Card", 
 "owner": "Administrator", 
 "print_format_builder": 1, 
 "print_format_type": "Server", 
 "show_section_headings": 0, 
 "standard": "Yes"
}